{
	"info": {
		"_postman_id": "b5dcf799-0a95-4b43-9a4a-92d414a8c2f5",
		"name": "capstone2-ecommerce-system-api",
		"schema": "https://schema.getpostman.com/json/collection/v2.1.0/collection.json"
	},
	"item": [
		{
			"name": "users",
			"item": [
				{
					"name": "User registration",
					"request": {
						"method": "POST",
						"header": [],
						"body": {
							"mode": "raw",
							"raw": "{\r\n    \"email\": \"macaraegcj5@gmail.com\",\r\n    \"password\": \"user123\"\r\n}",
							"options": {
								"raw": {
									"language": "json"
								}
							}
						},
						"url": {
							"raw": "http://localhost:7777/users/register",
							"protocol": "http",
							"host": [
								"localhost"
							],
							"port": "7777",
							"path": [
								"users",
								"register"
							]
						}
					},
					"response": []
				},
				{
					"name": "User login / Admin login (Authentication)",
					"request": {
						"method": "POST",
						"header": [],
						"body": {
							"mode": "raw",
							"raw": "{\r\n    \"email\": \"macaraegcjadmin4@gmail.com\",\r\n    \"password\": \"user123\"\r\n}",
							"options": {
								"raw": {
									"language": "json"
								}
							}
						},
						"url": {
							"raw": "http://localhost:7777/users/login",
							"protocol": "http",
							"host": [
								"localhost"
							],
							"port": "7777",
							"path": [
								"users",
								"login"
							]
						}
					},
					"response": []
				},
				{
					"name": "get user / admin account info (admin)",
					"request": {
						"auth": {
							"type": "bearer",
							"bearer": [
								{
									"key": "token",
									"value": "eyJhbGciOiJIUzI1NiIsInR5cCI6IkpXVCJ9.eyJpZCI6IjYzNDNhZGNkODFhYjc5ZTk0NTU2OGU2OSIsImVtYWlsIjoibWFjYXJhZWdjamFkbWluNEBnbWFpbC5jb20iLCJpc0FkbWluIjp0cnVlLCJpYXQiOjE2NjU0MTU0NzJ9.tG4s9ViYDZelF9G3V0Z3Fg_JWgbhUIdWu-PjJK6ix6c",
									"type": "string"
								}
							]
						},
						"method": "GET",
						"header": [],
						"url": {
							"raw": "http://localhost:7777/users/getAllUsersDetails",
							"protocol": "http",
							"host": [
								"localhost"
							],
							"port": "7777",
							"path": [
								"users",
								"getAllUsersDetails"
							]
						}
					},
					"response": []
				},
				{
					"name": "Admin registeration",
					"request": {
						"method": "POST",
						"header": [],
						"url": {
							"raw": "http://localhost:7777/users/registerAdmin",
							"protocol": "http",
							"host": [
								"localhost"
							],
							"port": "7777",
							"path": [
								"users",
								"registerAdmin"
							]
						}
					},
					"response": []
				},
				{
					"name": "Delete an User (Admin)",
					"request": {
						"auth": {
							"type": "bearer",
							"bearer": [
								{
									"key": "token",
									"value": "eyJhbGciOiJIUzI1NiIsInR5cCI6IkpXVCJ9.eyJpZCI6IjYzNDQ0YTg2M2FhZjE5YzEwYTI1MTk5MiIsImVtYWlsIjoibWFjYXJhZWdjamFkbWluNUBnbWFpbC5jb20iLCJpc0FkbWluIjp0cnVlLCJpYXQiOjE2NjU0MjAxNDZ9.i3OgoR70cU9gu94RMQYi0E6S0G5yi2zZttGctP9D8M8",
									"type": "string"
								}
							]
						},
						"method": "DELETE",
						"header": [],
						"url": {
							"raw": "http://localhost:7777/users/delete/63439a6cf699b3c4b40b2f70",
							"protocol": "http",
							"host": [
								"localhost"
							],
							"port": "7777",
							"path": [
								"users",
								"delete",
								"63439a6cf699b3c4b40b2f70"
							]
						}
					},
					"response": []
				}
			]
		},
		{
			"name": "products",
			"item": [
				{
					"name": "creating a product",
					"request": {
						"auth": {
							"type": "bearer",
							"bearer": [
								{
									"key": "token",
									"value": "eyJhbGciOiJIUzI1NiIsInR5cCI6IkpXVCJ9.eyJpZCI6IjYzNDM5YTZjZjY5OWIzYzRiNDBiMmY3MCIsImVtYWlsIjoibWFjYXJhZWdjamFkbWluM0BnbWFpbC5jb20iLCJpc0FkbWluIjp0cnVlLCJpYXQiOjE2NjUzNzQ4ODJ9.4VjD4zI52QOOdg8NcXKaHQd9nywExcqmq5CFTO-JImA",
									"type": "string"
								}
							]
						},
						"method": "POST",
						"header": [],
						"body": {
							"mode": "raw",
							"raw": "{\r\n    \"name\": \"seventh Product\",\r\n    \"description\": \"To the moon\",\r\n    \"price\": 9.99\r\n}",
							"options": {
								"raw": {
									"language": "json"
								}
							}
						},
						"url": {
							"raw": "http://localhost:7777/products/createProduct",
							"protocol": "http",
							"host": [
								"localhost"
							],
							"port": "7777",
							"path": [
								"products",
								"createProduct"
							]
						}
					},
					"response": []
				},
				{
					"name": "get all products (Admin)",
					"request": {
						"auth": {
							"type": "bearer",
							"bearer": [
								{
									"key": "token",
									"value": "eyJhbGciOiJIUzI1NiIsInR5cCI6IkpXVCJ9.eyJpZCI6IjYzNDNhZGNkODFhYjc5ZTk0NTU2OGU2OSIsImVtYWlsIjoibWFjYXJhZWdjamFkbWluNEBnbWFpbC5jb20iLCJpc0FkbWluIjp0cnVlLCJpYXQiOjE2NjU0MTI1MjJ9.kQGVXe_JugQmvrg7ZZ7XFRN5PIX1vY7C9oWhp5DCtsE",
									"type": "string"
								}
							]
						},
						"method": "GET",
						"header": [],
						"url": {
							"raw": "http://localhost:7777/products/getAllProducts",
							"protocol": "http",
							"host": [
								"localhost"
							],
							"port": "7777",
							"path": [
								"products",
								"getAllProducts"
							]
						}
					},
					"response": []
				},
				{
					"name": "get all active product",
					"request": {
						"method": "GET",
						"header": []
					},
					"response": []
				},
				{
					"name": "get one/specific product",
					"request": {
						"auth": {
							"type": "bearer",
							"bearer": [
								{
									"key": "token",
									"value": "eyJhbGciOiJIUzI1NiIsInR5cCI6IkpXVCJ9.eyJpZCI6IjYzNDM5YTZjZjY5OWIzYzRiNDBiMmY3MCIsImVtYWlsIjoibWFjYXJhZWdjamFkbWluM0BnbWFpbC5jb20iLCJpc0FkbWluIjp0cnVlLCJpYXQiOjE2NjUzNzQ4ODJ9.4VjD4zI52QOOdg8NcXKaHQd9nywExcqmq5CFTO-JImA",
									"type": "string"
								}
							]
						},
						"method": "GET",
						"header": [],
						"url": {
							"raw": "http://localhost:7777/products/getOneProduct/6342ab7418090560bd406873",
							"protocol": "http",
							"host": [
								"localhost"
							],
							"port": "7777",
							"path": [
								"products",
								"getOneProduct",
								"6342ab7418090560bd406873"
							]
						}
					},
					"response": []
				},
				{
					"name": "Update one/specific product (Admin)",
					"request": {
						"auth": {
							"type": "bearer",
							"bearer": [
								{
									"key": "token",
									"value": "eyJhbGciOiJIUzI1NiIsInR5cCI6IkpXVCJ9.eyJpZCI6IjYzNDQ0YTg2M2FhZjE5YzEwYTI1MTk5MiIsImVtYWlsIjoibWFjYXJhZWdjamFkbWluNUBnbWFpbC5jb20iLCJpc0FkbWluIjp0cnVlLCJpYXQiOjE2NjU0Njg0MDZ9.94izFFzi0l4iegoeALV8ze0WN98FzcH9KtH7gntwoPY",
									"type": "string"
								}
							]
						},
						"method": "PATCH",
						"header": [],
						"body": {
							"mode": "raw",
							"raw": "{\r\n    \"name\": \"Downy walong banlaw\",\r\n    \"description\": \"Fabric Conditioner\",\r\n    \"price\": 8.99\r\n}",
							"options": {
								"raw": {
									"language": "json"
								}
							}
						},
						"url": {
							"raw": "http://localhost:7777/products/updateOneProduct/6342a8084fac9b9b6d1c7b59",
							"protocol": "http",
							"host": [
								"localhost"
							],
							"port": "7777",
							"path": [
								"products",
								"updateOneProduct",
								"6342a8084fac9b9b6d1c7b59"
							]
						}
					},
					"response": []
				},
				{
					"name": "Archive a product (Admin)",
					"request": {
						"auth": {
							"type": "bearer",
							"bearer": [
								{
									"key": "token",
									"value": "eyJhbGciOiJIUzI1NiIsInR5cCI6IkpXVCJ9.eyJpZCI6IjYzNDNhZGNkODFhYjc5ZTk0NTU2OGU2OSIsImVtYWlsIjoibWFjYXJhZWdjamFkbWluNEBnbWFpbC5jb20iLCJpc0FkbWluIjp0cnVlLCJpYXQiOjE2NjU0MTAzMDV9.tJpanLmE3de_-rDlu42K73_6RJZEMz6KhiFsCTPPm8I",
									"type": "string"
								}
							]
						},
						"method": "PATCH",
						"header": [],
						"body": {
							"mode": "raw",
							"raw": "",
							"options": {
								"raw": {
									"language": "json"
								}
							}
						},
						"url": {
							"raw": "http://localhost:7777/products/archiveProduct/634423e0917a9a1a181992d4",
							"protocol": "http",
							"host": [
								"localhost"
							],
							"port": "7777",
							"path": [
								"products",
								"archiveProduct",
								"634423e0917a9a1a181992d4"
							]
						}
					},
					"response": []
				},
				{
					"name": "Unarchive a product (Admin)",
					"request": {
						"auth": {
							"type": "bearer",
							"bearer": [
								{
									"key": "token",
									"value": "eyJhbGciOiJIUzI1NiIsInR5cCI6IkpXVCJ9.eyJpZCI6IjYzNDQ0YTg2M2FhZjE5YzEwYTI1MTk5MiIsImVtYWlsIjoibWFjYXJhZWdjamFkbWluNUBnbWFpbC5jb20iLCJpc0FkbWluIjp0cnVlLCJpYXQiOjE2NjU0Njg0MDZ9.94izFFzi0l4iegoeALV8ze0WN98FzcH9KtH7gntwoPY",
									"type": "string"
								}
							]
						},
						"method": "PATCH",
						"header": [],
						"url": {
							"raw": "http://localhost:7777/products/unarchiveProduct/634423e0917a9a1a181992d4",
							"protocol": "http",
							"host": [
								"localhost"
							],
							"port": "7777",
							"path": [
								"products",
								"unarchiveProduct",
								"634423e0917a9a1a181992d4"
							]
						}
					},
					"response": []
				},
				{
					"name": "Delete a Product (Admin)",
					"request": {
						"auth": {
							"type": "bearer",
							"bearer": [
								{
									"key": "token",
									"value": "eyJhbGciOiJIUzI1NiIsInR5cCI6IkpXVCJ9.eyJpZCI6IjYzNDQ0YTg2M2FhZjE5YzEwYTI1MTk5MiIsImVtYWlsIjoibWFjYXJhZWdjamFkbWluNUBnbWFpbC5jb20iLCJpc0FkbWluIjp0cnVlLCJpYXQiOjE2NjU0MjE0MTJ9.iyPqFsSABWUjejSImAl2hiCCFbZU1wDnTwHEr_GFJF0",
									"type": "string"
								}
							]
						},
						"method": "DELETE",
						"header": [],
						"url": {
							"raw": "http://localhost:7777/products/deleteProduct/634423e0917a9a1a181992d4",
							"protocol": "http",
							"host": [
								"localhost"
							],
							"port": "7777",
							"path": [
								"products",
								"deleteProduct",
								"634423e0917a9a1a181992d4"
							]
						}
					},
					"response": []
				}
			]
		},
		{
			"name": "orders",
			"item": [
				{
					"name": "get order list",
					"request": {
						"auth": {
							"type": "bearer",
							"bearer": [
								{
									"key": "token",
									"value": "eyJhbGciOiJIUzI1NiIsInR5cCI6IkpXVCJ9.eyJhbGciOiJIUzI1NiIsInR5cCI6IkpXVCJ9.eyJpZCI6IjYzNDQ0YTg2M2FhZjE5YzEwYTI1MTk5MiIsImVtYWlsIjoibWFjYXJhZWdjamFkbWluNUBnbWFpbC5jb20iLCJpc0FkbWluIjp0cnVlLCJpYXQiOjE2NjU0NjU5ODF9.Tj8I-spktebalvxBoe1caMP0cuTp-4vNnUBmygjqzMEIjYzNDQzYWE2OGZiNTZlZGQyMzA5MjY2OCIsImVtYWlsIjoibWFjYXJhZWdjajVAZ21haWwuY29tIiwiaXNBZG1pbiI6ZmFsc2UsImlhdCI6MTY2NTQ1MzU5NH0.c_XDYQ0ut2Z5W78OfgtrXANrequho1BvgVR8JOCH0Jg",
									"type": "string"
								}
							]
						},
						"method": "GET",
						"header": [],
						"url": {
							"raw": "http://localhost:7777/orders/allOrders",
							"protocol": "http",
							"host": [
								"localhost"
							],
							"port": "7777",
							"path": [
								"orders",
								"allOrders"
							]
						}
					},
					"response": []
				},
				{
					"name": "add / create order",
					"request": {
						"auth": {
							"type": "bearer",
							"bearer": [
								{
									"key": "token",
									"value": "eyJhbGciOiJIUzI1NiIsInR5cCI6IkpXVCJ9.eyJpZCI6IjYzNDQzYWE2OGZiNTZlZGQyMzA5MjY2OCIsImVtYWlsIjoibWFjYXJhZWdjajVAZ21haWwuY29tIiwiaXNBZG1pbiI6ZmFsc2UsImlhdCI6MTY2NTQ2MzIxM30.BABiw-_Lx_oEaKAJTfN0OVBRBvqcn-NCrsH53VFnJ5A",
									"type": "string"
								}
							]
						},
						"method": "POST",
						"header": [],
						"body": {
							"mode": "raw",
							"raw": "{\r\n    \"user\": \"63443aa68fb56edd23092668\",\r\n    \"products\": [\r\n        {\r\n            \"productId\": \"6342ab7418090560bd406873\",\r\n            \"quantity\" : \"3\"\r\n        }\r\n    ]\r\n\r\n}",
							"options": {
								"raw": {
									"language": "json"
								}
							}
						},
						"url": {
							"raw": "http://localhost:7777/orders/createOrder",
							"protocol": "http",
							"host": [
								"localhost"
							],
							"port": "7777",
							"path": [
								"orders",
								"createOrder"
							]
						}
					},
					"response": []
				}
			]
		}
	]
}